 {
    "english": {
        "TITLE": "Blog",
        "SUBTITLE": "Want to read more on education?",
        "SUBCONTENT": "Hong Kong is a crazy place – certainly one of the most culturally and educationally diverse places in the world. We have international schools and local schools.<br /><br />We can take dozens of exams from HKDSE to SAT, GCEs to APs…With so many unique choices, how can Hong Kong students choose?<br /><br />That’s why Hong Kong Education Blog is created.",
        "MOREINFO": "Want to read more on education? Visit {{DEFIND_BLOG}} now."
    },
    "chinese": {
        "TITLE": "Blog",
        "SUBTITLE": "想有更多教育知訊？",
        "SUBCONTENT": "香港　───　一個集合不同文化與教育模式的地方，我們有本地和國際學校，還有，各式各樣，五花八門的考試供一眾莘莘學子選擇，如： HKDSE，SAT, GCEs, APs...<br /><br />有時候，選擇多並不是優點，反而為我們香港的學生帶來煩惱。競爭激烈，學歷的重要性無容置疑，面對無數的選擇，我們該如何作出最適合自己的抉擇呢？<br /><br />Defind ───　就是我們為一眾莘莘學子創立的原因。",
        "MOREINFO": "想有更多教育知訊？請瀏覽 {{DEFIND_BLOG}}"
    }
 }
    