{
    "english": {
        "TITLE"  : "Contact Us",
        "MESSAGE": "Send Us a Message",
        "NAME"   : "Name",
        "EMAIL"  : "Email",
        "SUBJECT": "Subject",
        "DETAIL" : "Details",
        "SEND"   : "Send",
        "THANKS" : "Thank you for your message."
    },
    "chinese": {
        "TITLE"  : "聯絡我們",
        "MESSAGE": "發送訊息",
        "NAME"   : "姓名",
        "EMAIL"  : "電郵地址",
        "SUBJECT": "主題",
        "DETAIL" : "內容",
        "SEND"   : "發送",
        "THANKS" : "謝謝你的訊息"
    }
}