[
    "Faculty of Architecture",
    "Faculty of Arts",
    "Faculty of Business and Economics",
    "Faculty of Dentistry",
    "Faculty of Education",
    "Faculty of Engineering",
    "Faculty of Humanities and Social Sciences",
    "Faculty of Law",
    "Faculty of Medicine",
    "Faculty of Science",
    "Graduate School",
    "Other"
]