{
    "english": {
        "Home": "./index.php",
        "About Us": "about-us.php",
        "Join Us": "about-us.php?url=careers",
        "Contact Us": "contact-us.php",
        "Privacy Policy": "privacy.php",
        "Terms and Conditions": "terms-conditions.php",
        "Blog": "defind-blog.php"
    },
    "chinese": {
        "主頁": "./index.php",
        "關於我們": "about-us.php",
        "加入我們": "about-us.php?url=careers",
        "聯絡我們": "contact-us.php",
        "私隱條款聲明": "privacy.php",
        "網站使用條款": "terms-conditions.php",
        "Blog": "defind-blog.php"
    }
}