{
    "english": {
        "TUTORS_IN": "Tutors in",
        "TEACHING": "Teaching",
        "SUBJECTS": "Subjects",
        "AT": "At",
        "SEARCH_AGAIN": "Search Again",
        "ALL": "All",
        "MALE": "Male",
        "FEMALE": "Female",
        "PRICE": "Price",
        "DISTRICTS": "Districts",
        "GENDER": "Gender",
        "LOCATION": "Location"
    },
    "chinese": {
        "TUTORS_IN": "導師大學",
        "TEACHING": "級別/考試",
        "SUBJECTS": "科目",
        "AT": "地區",
        "SEARCH_AGAIN": "重新搜索",
        "ALL": "全部",
        "MALE": "男",
        "FEMALE": "女",
        "PRICE": "收費",
        "DISTRICTS": "地區",
        "GENDER": "性別",
        "LOCATION": "地區"
    }
}
    