{
    "english": {
        "1":[
            {"id": 1,"name": "Chinese"},
            {"id": 2,"name": "English"},
            {"id": 3,"name": "Math"},
            {"id": 4,"name": "Other"}
        ],
        "2":[
            {"id": 5,"name": "Chinese"},
            {"id": 6,"name": "English"},
            {"id": 7,"name": "Math"},
            {"id": 8,"name": "Science"},
            {"id": 9,"name": "Other"}
        ],
        "3":[
            {"id": 10,"name": "Chinese"},
            {"id": 11,"name": "English"},
            {"id": 12,"name": "Math"},
            {"id": 14,"name": "Physics"},
            {"id": 15,"name": "Chemistry"},
            {"id": 16,"name": "Biology"},
            {"id": 17,"name": "History"},
            {"id": 18,"name": "Chinese History"},
            {"id": 19,"name": "Geography"},
            {"id": 20,"name": "Economics"},
            {"id": 21,"name": "Accounting"},
            {"id": 22,"name": "Liberal Studies"},
            {"id": 23,"name": "Other"}
        ],
        "4":[
            {"id": 24,"name": "Chinese"},
            {"id": 25,"name": "English"},
            {"id": 26,"name": "Math"},
            {"id": 27,"name": "Physics"},
            {"id": 28,"name": "Chemistry"},
            {"id": 29,"name": "Biology"},
            {"id": 30,"name": "History"},
            {"id": 31,"name": "Geography"},
            {"id": 32,"name": "Economics"},
            {"id": 33,"name": "Accounting"},
            {"id": 34,"name": "Other"}
        ],
        "5":[
            {"id": 35,"name": "Chinese"},
            {"id": 36,"name": "English"},
            {"id": 37,"name": "Math"},
            {"id": 38,"name": "Physics"},
            {"id": 39,"name": "Chemistry"},
            {"id": 40,"name": "Biology"},
            {"id": 41,"name": "Geography"},
            {"id": 42,"name": "Economics"},
            {"id": 43,"name": "Accounting"},
            {"id": 44,"name": "Other"}
        ],
        "6":[
            {"id": 45,"name": "Chinese"},
            {"id": 46,"name": "Math"},
            {"id": 47,"name": "Physics"},
            {"id": 48,"name": "Chemistry"},
            {"id": 49,"name": "Biology"},
            {"id": 50,"name": "Other"}
        ]
    },
    "chinese": {
        "1":[
            {"id": 1,"name": "中文"},
            {"id": 2,"name": "英文"},
            {"id": 3,"name": "數學"},
            {"id": 4,"name": "其他"}
        ],
        "2":[
            {"id": 5,"name": "中文"},
            {"id": 6,"name": "英文"},
            {"id": 7,"name": "數學"},
            {"id": 8,"name": "科學"},
            {"id": 9,"name": "其他"}
        ],
        "3":[
            {"id": 10,"name": "中文"},
            {"id": 11,"name": "英文"},
            {"id": 12,"name": "數學"},
            {"id": 14,"name": "物理"},
            {"id": 15,"name": "化學"},
            {"id": 16,"name": "生物"},
            {"id": 17,"name": "歷史"},
            {"id": 18,"name": "中史"},
            {"id": 19,"name": "地理"},
            {"id": 20,"name": "經濟"},
            {"id": 21,"name": "會計"},
            {"id": 22,"name": "通識"},
            {"id": 23,"name": "其他"}
        ],
        "4":[
            {"id": 24,"name": "中文"},
            {"id": 25,"name": "英文"},
            {"id": 26,"name": "數學"},
            {"id": 27,"name": "物理"},
            {"id": 28,"name": "化學"},
            {"id": 29,"name": "生物"},
            {"id": 30,"name": "歷史"},
            {"id": 31,"name": "地理"},
            {"id": 32,"name": "經濟"},
            {"id": 33,"name": "會計"},
            {"id": 34,"name": "其他"}
        ],
        "5":[
            {"id": 35,"name": "中文"},
            {"id": 36,"name": "英文"},
            {"id": 37,"name": "數學"},
            {"id": 38,"name": "物理"},
            {"id": 39,"name": "化學"},
            {"id": 40,"name": "生物"},
            {"id": 41,"name": "地理"},
            {"id": 42,"name": "經濟"},
            {"id": 43,"name": "會計"},
            {"id": 44,"name": "其他"}
        ],
        "6":[
            {"id": 45,"name": "中文"},
            {"id": 46,"name": "數學"},
            {"id": 47,"name": "物理"},
            {"id": 48,"name": "化學"},
            {"id": 49,"name": "生物"},
            {"id": 50,"name": "其他"}
        ]
    }
}